{
    "name": "Revy.Framework.ScriptableObjectFactory.Editor",
    "references": [
        "Revy.Framework"
    ],
    "optionalUnityReferences": [],
    "includePlatforms": [
        "Editor"
    ],
    "excludePlatforms": [],
    "allowUnsafeCode": false
}